^C:\USERS\120493240\DESKTOP\PLAYING-CARDS\AJK.CARDS\X64\DEBUG\MAIN.OBJ
C:\USERS\120493240\DESKTOP\PLAYING-CARDS\AJK.CARDS\X64\DEBUG\AJK.CARDS.ILK
C:\USERS\120493240\DESKTOP\PLAYING-CARDS\X64\DEBUG\AJK.CARDS.EXE
C:\USERS\120493240\DESKTOP\PLAYING-CARDS\X64\DEBUG\AJK.CARDS.PDB
